@startuml

class Wohnung{
+preis
+fläche
+baujahr
+bild:Bild
}

class Anzeige{
+anzeigenDauer
}

class Bild{
}
class Person{
+profilbild:Bild
}
class Anbieter
class Mitarbeiter
class Interessent{

}
class Besichtigungstermin
class Suchauftrag

Anbieter "0..*" -- "0..*" Wohnung : bietet an>
Anbieter  --|> Person
Anbieter "1" -- "0..*" Mitarbeiter : beschäftigt>
Anbieter "0..*" -- "0..*" Interessent : betreut>
Anbieter -- Besichtigungstermin

Wohnung "1" -- "1" Anzeige :enthält>
Wohnung"0..*" --  "0..*"Bild :hat>

Besichtigungstermin "1" -- "1..*" Anzeige
Besichtigungstermin "1" -- "1..*" Interessent


Mitarbeiter --|> Person


Interessent "1" -- "0..*" Suchauftrag : sucht>
Interessent --|> Person


@enduml